Import Data from a RRD (Round Robin Database) File • rrd
…
Since the resulting object is a list of tibbles, you can easily work with individual data frames:

names(cpu)
#>  [1] "AVERAGE60"    "AVERAGE300"   "MIN300"       "MAX300"       "AVERAGE3600" 
#>  [6] "MIN3600"      "MAX3600"      "AVERAGE86400" "MIN86400"     "MAX86400"

cpu[[1]]
#> # A tibble: 43,199 × 9
#>    timestamp              user     sys  nice  idle  wait   irq softirq   stolen
#>    <dttm>                <dbl>   <dbl> <dbl> <dbl> <dbl> <dbl>   <dbl>    <dbl>
#>  1 2018-04-02 12:24:00 0.0104  0.00811     0 0.981     0     0       0 0.000137
#>  2 2018-04-02 12:25:00 0.0126  0.00630     0 0.979     0     0       0 0.00192 
#>  3 2018-04-02 12:26:00 0.0159  0.00808     0 0.976     0     0       0 0       
#>  4 2018-04-02 12:27:00 0.00853 0.00647     0 0.985     0     0       0 0       
#>  5 2018-04-02 12:28:00 0.0122  0.00999     0 0.978     0     0       0 0       
#>  6 2018-04-02 12:29:00 0.0106  0.00604     0 0.983     0     0       0 0       
#>  7 2018-04-02 12:30:00 0.0147  0.00427     0 0.981     0     0       0 0.000137
#>  8 2018-04-02 12:31:00 0.0193  0.00767     0 0.971     0     0       0 0.00191 
#>  9 2018-04-02 12:32:00 0.0300  0.0274      0 0.943     0     0       0 0       
#> 10 2018-04-02 12:33:00 0.0162  0.00617     0 0.978     0     0       0 0.000137
#> # … with 43,189 more rows

tail(cpu$AVERAGE60$sys)
#> [1] 0.0014390667 0.0020080000 0.0005689333 0.0000000000 0.0014390667
#> [6] 0.0005689333

To read a single RRA archive from an RRD file, use read_rra(). To use this function, you must specify several arguments that define the specific data to retrieve. This includes the consolidation function (e.g. “AVERAGE”) and time step (e.g. 60), the end time. You must also specifiy either the start time, or the number of steps, n_steps.

In this example, you extract the average for 1 minute periods (step = 60), for one entire day (n_steps = 24 * 60):

end_time <- as.POSIXct("2018-05-02") # timestamp with data in example
avg_60 <- read_rra(rrd_cpu_0, cf = "AVERAGE", step = 60, n_steps = 24 * 60,
                     end = end_time)

avg_60
#> # A tibble: 1,440 × 9
#>    timestamp              user     sys  nice  idle    wait   irq softirq  stolen
#>    <dttm>                <dbl>   <dbl> <dbl> <dbl>   <dbl> <dbl>   <dbl>   <dbl>
#>  1 2018-05-01 00:01:00 0.00458 2.01e-3     0 0.992 0           0       0 1.44e-3
#>  2 2018-05-01 00:02:00 0.00258 5.70e-4     0 0.996 0           0       0 5.70e-4
#>  3 2018-05-01 00:03:00 0.00633 1.44e-3     0 0.992 0           0       0 0      
#>  4 2018-05-01 00:04:00 0.00515 2.01e-3     0 0.991 0           0       0 1.44e-3
#>  5 2018-05-01 00:05:00 0.00402 5.69e-4     0 0.995 0           0       0 5.69e-4
#>  6 2018-05-01 00:06:00 0.00689 1.44e-3     0 0.992 0           0       0 0      
#>  7 2018-05-01 00:07:00 0.00371 2.01e-3     0 0.993 1.44e-3     0       0 0      
#>  8 2018-05-01 00:08:00 0.00488 2.01e-3     0 0.993 5.69e-4     0       0 0      
#>  9 2018-05-01 00:09:00 0.00748 5.68e-4     0 0.992 0           0       0 0      
#> 10 2018-05-01 00:10:00 0.00516 0           0 0.995 0           0       0 0      
#> # … with 1,430 more rows
…
