Reading and analyzing log files in the RRD database format • rrd
…
Since the resulting object is a list of tibble objects, you can easily use R functions to work with an individual archive:

names(cpu)
#>  [1] "AVERAGE60"    "AVERAGE300"   "MIN300"       "MAX300"       "AVERAGE3600" 
#>  [6] "MIN3600"      "MAX3600"      "AVERAGE86400" "MIN86400"     "MAX86400"

To inspect the contents of the first archive (AVERAGE60), simply print the object - since it’s a tibble, you get 10 lines of output.

For example, the CPU metrics contains a time stamp and metrics for average user and sys usage, as well as the nice value, idle time, interrupt requests and soft interrupt requests:

cpu[[1]]
#> # A tibble: 43,199 × 9
#>    timestamp              user     sys  nice  idle  wait   irq softirq   stolen
#>    <dttm>                <dbl>   <dbl> <dbl> <dbl> <dbl> <dbl>   <dbl>    <dbl>
#>  1 2018-04-02 12:24:00 0.0104  0.00811     0 0.981     0     0       0 0.000137
#>  2 2018-04-02 12:25:00 0.0126  0.00630     0 0.979     0     0       0 0.00192 
#>  3 2018-04-02 12:26:00 0.0159  0.00808     0 0.976     0     0       0 0       
#>  4 2018-04-02 12:27:00 0.00853 0.00647     0 0.985     0     0       0 0       
#>  5 2018-04-02 12:28:00 0.0122  0.00999     0 0.978     0     0       0 0       
#>  6 2018-04-02 12:29:00 0.0106  0.00604     0 0.983     0     0       0 0       
#>  7 2018-04-02 12:30:00 0.0147  0.00427     0 0.981     0     0       0 0.000137
#>  8 2018-04-02 12:31:00 0.0193  0.00767     0 0.971     0     0       0 0.00191 
#>  9 2018-04-02 12:32:00 0.0300  0.0274      0 0.943     0     0       0 0       
#> 10 2018-04-02 12:33:00 0.0162  0.00617     0 0.978     0     0       0 0.000137
#> # … with 43,189 more rows
#> # ℹ Use `print(n = ...)` to see more rows
…
Reading only a single archive

The underlying code in the rrd package is written in C, and is therefore blazingly fast. Reading an entire RRD file takes a fraction of a second, but sometimes you may want to extract a specific RRA archive immediately.

To read a single RRA archive from an RRD file, use read_rra(). To use this function, you must specify several arguments that define the specific data to retrieve. This includes the consolidation function (e.g., "AVERAGE") and time step (e.g., 60). You must also specify either the start time or the number of steps, n_steps.

In this example, I extract the average for one-minute periods (step = 60) for one day (n_steps = 24 * 60):

end_time <- as.POSIXct("2018-05-02") # timestamp with data in example
avg_60 <- read_rra(rrd_cpu_0, cf = "AVERAGE", step = 60, n_steps = 24 * 60,
                     end = end_time)

avg_60
#> # A tibble: 1,440 × 9
#>    timestamp              user     sys  nice  idle    wait   irq softirq  stolen
#>    <dttm>                <dbl>   <dbl> <dbl> <dbl>   <dbl> <dbl>   <dbl>   <dbl>
#>  1 2018-05-01 00:01:00 0.00458 2.01e-3     0 0.992 0           0       0 1.44e-3
#>  2 2018-05-01 00:02:00 0.00258 5.70e-4     0 0.996 0           0       0 5.70e-4
#>  3 2018-05-01 00:03:00 0.00633 1.44e-3     0 0.992 0           0       0 0      
#>  4 2018-05-01 00:04:00 0.00515 2.01e-3     0 0.991 0           0       0 1.44e-3
#>  5 2018-05-01 00:05:00 0.00402 5.69e-4     0 0.995 0           0       0 5.69e-4
#>  6 2018-05-01 00:06:00 0.00689 1.44e-3     0 0.992 0           0       0 0      
#>  7 2018-05-01 00:07:00 0.00371 2.01e-3     0 0.993 1.44e-3     0       0 0      
#>  8 2018-05-01 00:08:00 0.00488 2.01e-3     0 0.993 5.69e-4     0       0 0      
#>  9 2018-05-01 00:09:00 0.00748 5.68e-4     0 0.992 0           0       0 0      
#> 10 2018-05-01 00:10:00 0.00516 0           0 0.995 0           0       0 0      
#> # … with 1,430 more rows
#> # ℹ Use `print(n = ...)` to see more rows
…
This output tells you that metrics are collected every 60 seconds (one minute), and then in selected multiples (1 minute, 5 minutes, 1 hour and 1 day.) You can also tell that the consolidation functions are average, min and max.

To extract one month of data, averaged at 5-minute intervals use step = 300:

cpu <- file.path(rrd_location, "cpu-0.rrd")
dat <- read_rra(cpu, cf = "AVERAGE", step = 300L, n_steps = (3600 / 300) * 24 * 30, end = end_time)
dat
#> # A tibble: 8,640 × 9
#>    timestamp             user     sys  nice  idle     wait   irq softirq  stolen
#>    <dttm>               <dbl>   <dbl> <dbl> <dbl>    <dbl> <dbl>   <dbl>   <dbl>
#>  1 2018-04-02 00:05:00 0.0162 0.00821     0 0.975 0            0 0       8.22e-4
#>  2 2018-04-02 00:10:00 0.0221 0.00988     0 0.967 0            0 0       8.19e-4
#>  3 2018-04-02 00:15:00 0.0448 0.0186      0 0.934 0.00124      0 4.14e-4 1.24e-3
#>  4 2018-04-02 00:20:00 0.0177 0.00816     0 0.974 0            0 0       0      
#>  5 2018-04-02 00:25:00 0.0285 0.00799     0 0.963 0.000411     0 0       4.10e-4
#>  6 2018-04-02 00:30:00 0.140  0.00910     0 0.850 0            0 0       8.47e-4
#>  7 2018-04-02 00:35:00 0.0151 0.0151      0 0.969 0.000351     0 0       3.84e-4
#>  8 2018-04-02 00:40:00 0.0565 0.00942     0 0.929 0.00491      0 0       0      
#>  9 2018-04-02 00:45:00 0.0241 0.00835     0 0.967 0            0 0       8.50e-4
#> 10 2018-04-02 00:50:00 0.0251 0.0111      0 0.963 0            0 0       7.95e-4
#> # … with 8,630 more rows
#> # ℹ Use `print(n = ...)` to see more rows
…
